%YAML 1.1
%TAG !u! tag:unity3d.com,2011:
--- !u!1 &2865896670872552290
GameObject:
  m_ObjectHideFlags: 0
  m_CorrespondingSourceObject: {fileID: 0}
  m_PrefabInstance: {fileID: 0}
  m_PrefabAsset: {fileID: 0}
  serializedVersion: 6
  m_Component:
  - component: {fileID: 2865896670872552291}
  - component: {fileID: 2865896670872552288}
  m_Layer: 0
  m_Name: invadersManager
  m_TagString: Untagged
  m_Icon: {fileID: 0}
  m_NavMeshLayer: 0
  m_StaticEditorFlags: 0
  m_IsActive: 1
--- !u!4 &2865896670872552291
Transform:
  m_ObjectHideFlags: 0
  m_CorrespondingSourceObject: {fileID: 0}
  m_PrefabInstance: {fileID: 0}
  m_PrefabAsset: {fileID: 0}
  m_GameObject: {fileID: 2865896670872552290}
  m_LocalRotation: {x: 0, y: 0, z: 0, w: 1}
  m_LocalPosition: {x: 0, y: 6, z: 0}
  m_LocalScale: {x: 1, y: 1, z: 1}
  m_Children: []
  m_Father: {fileID: 0}
  m_RootOrder: 0
  m_LocalEulerAnglesHint: {x: 0, y: 0, z: 0}
--- !u!114 &2865896670872552288
MonoBehaviour:
  m_ObjectHideFlags: 0
  m_CorrespondingSourceObject: {fileID: 0}
  m_PrefabInstance: {fileID: 0}
  m_PrefabAsset: {fileID: 0}
  m_GameObject: {fileID: 2865896670872552290}
  m_Enabled: 1
  m_EditorHideFlags: 0
  m_Script: {fileID: 11500000, guid: 62d75354473bb8647ae440d0ba0c83ce, type: 3}
  m_Name: 
  m_EditorClassIdentifier: 
  settings: {fileID: 11400000, guid: 6fefb9996286e6f4a808f285eebb5bdb, type: 2}
  invaderPrefab: {fileID: 6823325545184091523, guid: dcb9afbe5ebd4264abf5f9c428a1e91d,
    type: 3}
  invaders: []
  invaderGraphics:
  - {fileID: 21300000, guid: 7a9fa6ed764d09e498e641fa7ead6692, type: 3}
  - {fileID: 21300000, guid: 03869436ec1b0634fa5ce0745d2330b4, type: 3}
  - {fileID: 21300000, guid: 4694473dd73301146ac4bba529e3d8ef, type: 3}
  invaderDeathEffects:
  - {fileID: 5328140214413295350, guid: a6f499d2e6a49554194a70f89b93c777, type: 3}
  - {fileID: 5328140214413295350, guid: b77a440546997dc4c85a56e92f0a2f02, type: 3}
  - {fileID: 5328140214413295350, guid: da9230a9662b83b41bab0af883ba0dd4, type: 3}
  destroySelfAfterInvaderSpawn: 1
  startingInvaders: 21
  lines: 3
